…
annot_lookup_hg38 %>% print(n = 3)
#   A tibble: 75,739 × 8
#   chromosome_name start_position end_position gene_biotype hgnc_symbol
#   <chr>                    <int>        <int> <chr>        <chr>      
# 1 MT                         577          647 Mt_tRNA      MT-TF      
# 2 MT                         648         1601 Mt_rRNA      MT-RNR1    
# 3 MT                        1602         1670 Mt_tRNA      MT-TV      
# ℹ 75,736 more rows
# ℹ 3 more variables: entrezgene_id <int>, ensembl_gene_id <chr>, strand <int>


annot_lookup_hg19 %>% print(n = 3)
#  A tibble: 67,198 × 7
#   chromosome_name start_position end_position gene_biotype   hgnc_symbol
#   <chr>                    <int>        <int> <chr>          <chr>      
# 1 HG991_PATCH           66119285     66465398 protein_coding "SLC25A26" 
# 2 13                    23551994     23552136 miRNA          ""         
# 3 13                    23708313     23708703 pseudogene     "HMGA1P6"  
# ℹ 67,195 more rows
# ℹ 2 more variables: entrezgene_id <int>, ensembl_gene_id <chr>
…
